{"properties": [
  {
    "name": "spring.thymeleaf.template-loader-path",
    "type": "java.lang.String",
    "description": "A description for 'spring.thymeleaf.template-loader-path'"
  },
  {
    "name": "error.message",
    "type": "java.lang.String",
    "description": "A description for 'error.message'"
  },
  {
    "name": "welcome.message",
    "type": "java.lang.String",
    "description": "A description for 'welcome.message'"
  }
]}